﻿{
  "supports": {
    "net46.app": {},
    "uwp.10.0.app": {}
  },
  "dependencies": {
    "Microsoft.NETCore": "5.0.1-beta-23225",
    "Microsoft.NETCore.Portable.Compatibility": "1.0.1-beta-23225",
    "System.Diagnostics.Contracts": "4.0.1-beta-23225"
  },
  "frameworks": {
    "dotnet": {
      "imports": "portable-net452+win81"
    }
  }
}